\relax 
\providecommand{\transparent@use}[1]{}
\providecommand\hyper@newdestlabel[2]{}
\providecommand\HyperFirstAtBeginDocument{\AtBeginDocument}
\HyperFirstAtBeginDocument{\ifx\hyper@anchor\@undefined
\global\let\oldcontentsline\contentsline
\gdef\contentsline#1#2#3#4{\oldcontentsline{#1}{#2}{#3}}
\global\let\oldnewlabel\newlabel
\gdef\newlabel#1#2{\newlabelxx{#1}#2}
\gdef\newlabelxx#1#2#3#4#5#6{\oldnewlabel{#1}{{#2}{#3}}}
\AtEndDocument{\ifx\hyper@anchor\@undefined
\let\contentsline\oldcontentsline
\let\newlabel\oldnewlabel
\fi}
\fi}
\global\let\hyper@last\relax 
\gdef\HyperFirstAtBeginDocument#1{#1}
\providecommand\HyField@AuxAddToFields[1]{}
\providecommand\HyField@AuxAddToCoFields[2]{}
\@writefile{toc}{\contentsline {section}{\numberline {1}Simple Substitution Cipher with Permutations}{1}{section.1}\protected@file@percent }
\@writefile{toc}{\contentsline {subsection}{\numberline {1.1}Language Choice}{1}{subsection.1.1}\protected@file@percent }
\@writefile{toc}{\contentsline {subsection}{\numberline {1.2}Encryption and Decryption}{1}{subsection.1.2}\protected@file@percent }
\@writefile{toc}{\contentsline {subsection}{\numberline {1.3}Inputs and Outputs}{1}{subsection.1.3}\protected@file@percent }
\@writefile{toc}{\contentsline {section}{\numberline {2}Letter Frequency Analysis}{1}{section.2}\protected@file@percent }
\@writefile{toc}{\contentsline {subsection}{\numberline {2.1}Language Choice}{1}{subsection.2.1}\protected@file@percent }
\@writefile{toc}{\contentsline {subsection}{\numberline {2.2}Inputs and Outputs}{2}{subsection.2.2}\protected@file@percent }
\@writefile{toc}{\contentsline {subsection}{\numberline {2.3}Frequency Analysis}{2}{subsection.2.3}\protected@file@percent }
\@writefile{toc}{\contentsline {subsubsection}{\numberline {2.3.1}Chi-Squared Test}{2}{subsubsection.2.3.1}\protected@file@percent }
\@writefile{toc}{\contentsline {subsection}{\numberline {2.4}Experiments}{2}{subsection.2.4}\protected@file@percent }
\@writefile{toc}{\contentsline {subsubsection}{\numberline {2.4.1}Simple Frequency Analysis}{2}{subsubsection.2.4.1}\protected@file@percent }
\@writefile{lof}{\contentsline {figure}{\numberline {1}{\ignorespaces Encryption of Text}}{3}{figure.1}\protected@file@percent }
\@writefile{lof}{\contentsline {figure}{\numberline {2}{\ignorespaces Simple Frequency Analysis Attempt}}{3}{figure.2}\protected@file@percent }
\@writefile{lof}{\contentsline {figure}{\numberline {3}{\ignorespaces Encryption of Text}}{4}{figure.3}\protected@file@percent }
\@writefile{lof}{\contentsline {figure}{\numberline {4}{\ignorespaces Simple Frequency Analysis Attempt}}{4}{figure.4}\protected@file@percent }
\@writefile{toc}{\contentsline {subsubsection}{\numberline {2.4.2}Scored Frequency Analysis}{4}{subsubsection.2.4.2}\protected@file@percent }
\@writefile{lof}{\contentsline {figure}{\numberline {5}{\ignorespaces Scored Frequency Analysis Attempt}}{5}{figure.5}\protected@file@percent }
\@writefile{lof}{\contentsline {figure}{\numberline {6}{\ignorespaces Scored Frequency Analysis Attempt}}{5}{figure.6}\protected@file@percent }
\@writefile{toc}{\contentsline {section}{\numberline {3}Results}{5}{section.3}\protected@file@percent }
\@writefile{toc}{\contentsline {section}{\numberline {4}Improvements}{6}{section.4}\protected@file@percent }
\@writefile{toc}{\contentsline {section}{\numberline {5}Code Listings}{6}{section.5}\protected@file@percent }
\@writefile{toc}{\contentsline {subsection}{\numberline {5.1}SimpleSubPermute.cpp}{6}{subsection.5.1}\protected@file@percent }
\@writefile{toc}{\contentsline {subsection}{\numberline {5.2}Haxor.java}{9}{subsection.5.2}\protected@file@percent }
