\relax 
\providecommand{\transparent@use}[1]{}
\@writefile{toc}{\contentsline {section}{\numberline {I. }Problem Statement}{1}\protected@file@percent }
\@writefile{toc}{\contentsline {section}{\numberline {II. }Research Objective}{1}\protected@file@percent }
\@writefile{toc}{\contentsline {section}{\numberline {III. }History and Background}{2}\protected@file@percent }
\@writefile{toc}{\contentsline {section}{\numberline {IV. }Technical Approach and Methodology}{2}\protected@file@percent }
\@writefile{toc}{\contentsline {section}{\numberline {V. }Requirements}{2}\protected@file@percent }
\@writefile{toc}{\contentsline {section}{\numberline {VI. }Progression Timeline}{3}\protected@file@percent }
\bibcite{notes}{1}
\bibcite{stuff}{2}
\bibcite{norman}{3}
\bibcite{impj}{4}
\@writefile{toc}{\contentsline {section}{References}{4}\protected@file@percent }
