\contentsline {section}{\numberline {I. }Problem Statement}{1}% 
\contentsline {section}{\numberline {II. }Research Objective}{1}% 
\contentsline {section}{\numberline {III. }History and Background}{2}% 
\contentsline {section}{\numberline {IV. }Technical Approach and Methodology}{2}% 
\contentsline {section}{\numberline {V. }Requirements}{2}% 
\contentsline {section}{\numberline {VI. }Progression Timeline}{3}% 
\contentsline {section}{References}{4}% 
