\relax 
\providecommand{\transparent@use}[1]{}
\@writefile{toc}{\contentsline {section}{\numberline {I. }Introduction}{1}\protected@file@percent }
\@writefile{lof}{\contentsline {figure}{\numberline {1}{\ignorespaces Organization of the literature survey.}}{2}\protected@file@percent }
\@writefile{toc}{\contentsline {section}{\numberline {II. }Transparency and Artificial Intelligence}{2}\protected@file@percent }
\@writefile{toc}{\contentsline {subsection}{\numberline {A.}Classical AI: User and Developer Perspectives}{2}\protected@file@percent }
\@writefile{toc}{\contentsline {subsection}{\numberline {B.}Modern AI: User and Developer Perspectives}{3}\protected@file@percent }
\@writefile{toc}{\contentsline {section}{\numberline {III. }XAI in the Medical Domain}{5}\protected@file@percent }
\@writefile{toc}{\contentsline {section}{\numberline {IV. }Improving XAI}{5}\protected@file@percent }
\@writefile{toc}{\contentsline {section}{\numberline {V. }Conclusion}{6}\protected@file@percent }
\bibcite{Goebel}{1}
\bibcite{Hoffman}{2}
\bibcite{Kass}{3}
\bibcite{Buchanan}{4}
\bibcite{Swartout}{5}
\bibcite{Bratko}{6}
\bibcite{Lou}{7}
\bibcite{Ribeiro}{8}
\bibcite{Montavon}{9}
\bibcite{Kumar}{10}
\bibcite{Lipton}{11}
\bibcite{Preece}{12}
\bibcite{Peeked}{13}
\bibcite{Chittajallu}{14}
\@writefile{toc}{\contentsline {section}{References}{8}\protected@file@percent }
\bibcite{Kulikowski}{15}
\bibcite{Long}{16}
\bibcite{Ding}{17}
\bibcite{gunning}{18}
\bibcite{Tjoa}{19}
\bibcite{Doshi-Velez}{20}
\bibcite{Xie}{21}
